^C:\USERS\TONIS\SOURCE\REPOS\SPRING 2021\MADLIB\MADLIB\MAIN.CPP
C:\USERS\TONIS\SOURCE\REPOS\SPRING 2021\MADLIB\MADLIB\DEBUG\VC142.PDB
C:\USERS\TONIS\SOURCE\REPOS\SPRING 2021\MADLIB\MADLIB\DEBUG\VC142.IDB
C:\USERS\TONIS\SOURCE\REPOS\SPRING 2021\MADLIB\MADLIB\DEBUG\MAIN.OBJ
